"Mar 09, 2021",COL FINANC EAD OFFICE IB PHL  210309883445,,ELECTRONIC BANKING (EB),"30000.00",,,,"19118.21",,PHP,
"Mar 09, 2021",PAYROLL CREDIT PAYROLL CIB PYR  140326081731,,TBG-BUSINESS ONLINE BANKING,,,0.01,,"49118.21",,PHP,
"Mar 08, 2021",PAYROLL CREDIT PAYROLL CIB PYR  140651102737,,TBG-BUSINESS ONLINE BANKING,,,0.01,,"49118.20",,PHP,
"Mar 04, 2021",PAYROLL CREDIT PAYROLL CIB PYR  150300074258,,TBG-BUSINESS ONLINE BANKING,,,0.01,,"49118.19",,PHP,
"Mar 01, 2021",PAYROLL CREDIT PAYROLL CIB PYR  111377131536,,TBG-BUSINESS ONLINE BANKING,,,"10316.25",,"49118.18",,PHP,
"Feb 26, 2021",INTEREST WITHHELD,, ,0.81,,,,"38801.93",,PHP,
"Feb 26, 2021",INTEREST PAY SYS-GEN,, ,,,4.05,,"38802.74",,PHP,
"Feb 24, 2021",POS W/D SV Retail Sto Transactions POS PHL  105510005150,,ELECTRONIC BANKING UNIT,"1236.55",,,,"38798.69",,PHP,
"Feb 24, 2021",W/D P             BDO/00101143 01SM PASIG PH              021055002319,,SM HYPERMARKET PASIG,"10000.00",,,,"40035.24",,PHP,
"Feb 24, 2021",W/D P             BDO/00101143 01SM PASIG PH              021055002318,,SM HYPERMARKET PASIG,"10000.00",,,,"50035.24",,PHP,
"Feb 23, 2021",FT SA-SA BRS WEBS 021054778330,,TBG-REMITTANCE UNIT,,,"9596.87",,"60035.24",,PHP,